<?xml version="1.0" encoding="UTF-8" standalone="no"?>
<svg
   xmlns:dc="http://purl.org/dc/elements/1.1/"
   xmlns:cc="http://creativecommons.org/ns#"
   xmlns:rdf="http://www.w3.org/1999/02/22-rdf-syntax-ns#"
   xmlns:svg="http://www.w3.org/2000/svg"
   xmlns="http://www.w3.org/2000/svg"
   xmlns:sodipodi="http://sodipodi.sourceforge.net/DTD/sodipodi-0.dtd"
   xmlns:inkscape="http://www.inkscape.org/namespaces/inkscape"
   width="1184"
   height="656"
   version="1.1"
   id="svg509"
   sodipodi:docname="starwars.svg"
   inkscape:version="0.92.4 (unknown)">
  <metadata
     id="metadata515">
    <rdf:RDF>
      <cc:Work
         rdf:about="">
        <dc:format>image/svg+xml</dc:format>
        <dc:type
           rdf:resource="http://purl.org/dc/dcmitype/StillImage" />
      </cc:Work>
    </rdf:RDF>
  </metadata>
  <defs
     id="defs513" />
  <sodipodi:namedview
     pagecolor="#ffffff"
     bordercolor="#666666"
     borderopacity="1"
     objecttolerance="10"
     gridtolerance="10"
     guidetolerance="10"
     inkscape:pageopacity="0"
     inkscape:pageshadow="2"
     inkscape:window-width="1920"
     inkscape:window-height="1030"
     id="namedview511"
     showgrid="false"
     inkscape:zoom="1.1148649"
     inkscape:cx="468.31279"
     inkscape:cy="332.43016"
     inkscape:window-x="0"
     inkscape:window-y="24"
     inkscape:window-maximized="1"
     inkscape:current-layer="layer1" />
  <line
     style="stroke:#cc0000;stroke-width:0.74535519;stroke-opacity:0.8"
     id="line14"
     y2="472.93759"
     y1="539.96289"
     x2="484.05392"
     x1="489.5307" />
  <line
     style="stroke:#cc0000;stroke-width:0.74535519;stroke-opacity:0.8"
     id="line16"
     y2="611.08093"
     y1="539.96289"
     x2="475.75592"
     x1="489.5307" />
  <line
     style="stroke:#cc0000;stroke-width:0.74535519;stroke-opacity:0.8"
     id="line18"
     y2="611.08093"
     y1="472.93759"
     x2="475.75592"
     x1="484.05392" />
  <line
     style="stroke:#cc0000;stroke-width:0.74535519;stroke-opacity:0.8"
     id="line20"
     y2="53.928471"
     y1="40.942902"
     x2="616.672"
     x1="579.37885" />
  <g
     id="g26"
     transform="matrix(0.74535519,0,0,0.74535519,475.75592,611.0809)"
     class="node">
    <circle
       style="fill:#668877"
       cy="0"
       cx="0"
       id="circle22"
       r="5.1081967" />
    <text
       id="text24">REBEL OFFICER</text>
  </g>
  <line
     style="stroke:#cc0000;stroke-width:0.74535519;stroke-opacity:0.8"
     id="line52"
     y2="210.77122"
     y1="40.942902"
     x2="558.78204"
     x1="579.37885" />
  <line
     style="stroke:#cc0000;stroke-width:0.74535519;stroke-opacity:0.8"
     id="line54"
     y2="123.7767"
     y1="40.942902"
     x2="546.38318"
     x1="579.37885" />
  <line
     style="stroke:#cc0000;stroke-width:0.74535519;stroke-opacity:0.8"
     id="line56"
     y2="59.3256"
     y1="40.942902"
     x2="593.73938"
     x1="579.37885" />
  <line
     style="stroke:#00cc00;stroke-width:0.74535519;stroke-opacity:0.8"
     id="line58"
     y2="210.77122"
     y1="53.928471"
     x2="558.78204"
     x1="616.672" />
  <line
     style="stroke:#00cc00;stroke-width:0.74535519;stroke-opacity:0.8"
     id="line60"
     y2="123.7767"
     y1="53.928471"
     x2="546.38318"
     x1="616.672" />
  <line
     style="stroke:#cc0000;stroke-width:0.74535519;stroke-opacity:0.8"
     id="line62"
     y2="59.3256"
     y1="53.928471"
     x2="593.73938"
     x1="616.672" />
  <line
     style="stroke:#00cc00;stroke-width:1.49071038;stroke-opacity:0.8"
     id="line64"
     y2="123.7767"
     y1="210.77122"
     x2="546.38318"
     x1="558.78204" />
  <line
     style="stroke:#cc0000;stroke-width:0.74535519;stroke-opacity:0.8"
     id="line66"
     y2="59.3256"
     y1="210.77122"
     x2="593.73938"
     x1="558.78204" />
  <line
     style="stroke:#cc0000;stroke-width:0.74535519;stroke-opacity:0.8"
     id="line68"
     y2="59.3256"
     y1="123.7767"
     x2="593.73938"
     x1="546.38318" />
  <line
     style="stroke:#cc0000;stroke-width:0.74535519;stroke-opacity:0.8"
     id="line94"
     y2="472.93759"
     y1="294.16629"
     x2="484.05392"
     x1="503.93445" />
  <line
     style="stroke:#cc0000;stroke-width:0.74535519;stroke-opacity:0.8"
     id="line96"
     y2="465.76932"
     y1="294.16629"
     x2="513.01733"
     x1="503.93445" />
  <line
     style="stroke:#cc0000;stroke-width:0.74535519;stroke-opacity:0.8"
     id="line98"
     y2="473.98334"
     y1="294.16629"
     x2="535.21967"
     x1="503.93445" />
  <line
     style="stroke:#cc0000;stroke-width:0.74535519;stroke-opacity:0.8"
     id="line100"
     y2="465.76932"
     y1="472.93759"
     x2="513.01733"
     x1="484.05392" />
  <line
     style="stroke:#cc0000;stroke-width:0.74535519;stroke-opacity:0.8"
     id="line102"
     y2="473.98334"
     y1="472.93759"
     x2="535.21967"
     x1="484.05392" />
  <line
     style="stroke:#cc0000;stroke-width:0.74535519;stroke-opacity:0.8"
     id="line104"
     y2="473.98334"
     y1="465.76932"
     x2="535.21967"
     x1="513.01733" />
  <line
     style="stroke:#00cc00;stroke-width:0.74535519;stroke-opacity:0.8"
     id="line148"
     y2="500.18805"
     y1="366.5636"
     x2="558.63245"
     x1="571.97162" />
  <line
     style="stroke:#00cc00;stroke-width:0.74535519;stroke-opacity:0.8"
     id="line150"
     y2="210.77122"
     y1="137.60107"
     x2="558.78204"
     x1="675.65857" />
  <line
     style="stroke:#00cc00;stroke-width:0.74535519;stroke-opacity:0.8"
     id="line152"
     y2="166.97484"
     y1="137.60107"
     x2="691.91626"
     x1="675.65857" />
  <line
     style="stroke:#00cc00;stroke-width:0.74535519;stroke-opacity:0.8"
     id="line154"
     y2="255.30998"
     y1="137.60107"
     x2="607.15118"
     x1="675.65857" />
  <line
     style="stroke:#00cc00;stroke-width:1.49071038;stroke-opacity:0.8"
     id="line156"
     y2="166.97484"
     y1="210.77122"
     x2="691.91626"
     x1="558.78204" />
  <line
     style="stroke:#00cc00;stroke-width:1.49071038;stroke-opacity:0.8"
     id="line158"
     y2="255.30998"
     y1="210.77122"
     x2="607.15118"
     x1="558.78204" />
  <line
     style="stroke:#00cc00;stroke-width:1.49071038;stroke-opacity:0.8"
     id="line160"
     y2="255.30998"
     y1="166.97484"
     x2="607.15118"
     x1="691.91626" />
  <line
     style="stroke:#00cc00;stroke-width:1.49071038;stroke-opacity:0.8"
     id="line162"
     y2="294.16629"
     y1="255.30998"
     x2="503.93445"
     x1="607.15118" />
  <line
     style="stroke:#cc0000;stroke-width:0.74535519;stroke-opacity:0.8"
     id="line164"
     y2="190.79434"
     y1="255.30998"
     x2="640.87476"
     x1="607.15118" />
  <line
     style="stroke:#00cc00;stroke-width:1.49071038;stroke-opacity:0.8"
     id="line166"
     y2="294.16629"
     y1="210.77122"
     x2="503.93445"
     x1="558.78204" />
  <line
     style="stroke:#00cc00;stroke-width:1.49071038;stroke-opacity:0.8"
     id="line168"
     y2="190.79434"
     y1="210.77122"
     x2="640.87476"
     x1="558.78204" />
  <line
     style="stroke:#00cc00;stroke-width:0.74535519;stroke-opacity:0.8"
     id="line170"
     y2="190.79434"
     y1="294.16629"
     x2="640.87476"
     x1="503.93445" />
  <line
     style="stroke:#00cc00;stroke-width:1.07635248;stroke-opacity:0.8"
     id="line172"
     y2="190.79434"
     y1="166.97484"
     x2="640.87476"
     x1="691.91626" />
  <line
     style="stroke:#00cc00;stroke-width:1.49071038;stroke-opacity:0.8"
     id="line174"
     y2="210.77122"
     y1="337.11984"
     x2="558.78204"
     x1="609.49078" />
  <line
     style="stroke:#cc0000;stroke-width:0.74535519;stroke-opacity:0.8"
     id="line176"
     y2="337.11984"
     y1="255.30998"
     x2="609.49078"
     x1="607.15118" />
  <line
     style="stroke:#00cc00;stroke-width:0.74535519;stroke-opacity:0.8"
     id="line196"
     y2="294.16629"
     y1="337.11984"
     x2="503.93445"
     x1="609.49078" />
  <line
     style="stroke:#cc0000;stroke-width:0.74535519;stroke-opacity:0.8"
     id="line198"
     y2="460.99011"
     y1="546.67706"
     x2="408.25867"
     x1="421.5192" />
  <line
     style="stroke:#cc0000;stroke-width:0.74535519;stroke-opacity:0.8"
     id="line200"
     y2="459.58939"
     y1="546.67706"
     x2="444.23599"
     x1="421.5192" />
  <line
     style="stroke:#cc0000;stroke-width:0.74535519;stroke-opacity:0.8"
     id="line202"
     y2="472.93759"
     y1="546.67706"
     x2="484.05392"
     x1="421.5192" />
  <line
     style="stroke:#cc0000;stroke-width:0.74535519;stroke-opacity:0.8"
     id="line204"
     y2="459.58939"
     y1="460.99011"
     x2="444.23599"
     x1="408.25867" />
  <line
     style="stroke:#cc0000;stroke-width:0.74535519;stroke-opacity:0.8"
     id="line206"
     y2="472.93759"
     y1="460.99011"
     x2="484.05392"
     x1="408.25867" />
  <line
     style="stroke:#00cc00;stroke-width:0.74535519;stroke-opacity:0.8"
     id="line214"
     y2="472.93759"
     y1="459.58939"
     x2="484.05392"
     x1="444.23599" />
  <line
     style="stroke:#00cc00;stroke-width:0.74535519;stroke-opacity:0.8"
     id="line216"
     y2="210.77122"
     y1="402.22696"
     x2="558.78204"
     x1="558.60541" />
  <line
     style="stroke:#00cc00;stroke-width:0.74535519;stroke-opacity:0.8"
     id="line242"
     y2="337.11984"
     y1="402.22696"
     x2="609.49078"
     x1="558.60541" />
  <line
     style="stroke:#cc0000;stroke-width:0.74535519;stroke-opacity:0.8"
     id="line244"
     y2="210.77122"
     y1="265.4147"
     x2="558.78204"
     x1="695.51428" />
  <line
     style="stroke:#00cc00;stroke-width:0.74535519;stroke-opacity:0.8"
     id="line246"
     y2="255.30998"
     y1="265.4147"
     x2="607.15118"
     x1="695.51428" />
  <line
     style="stroke:#cc0000;stroke-width:0.74535519;stroke-opacity:0.8"
     id="line248"
     y2="284.63278"
     y1="265.4147"
     x2="699.03491"
     x1="695.51428" />
  <line
     style="stroke:#cc0000;stroke-width:0.74535519;stroke-opacity:0.8"
     id="line250"
     y2="245.89207"
     y1="265.4147"
     x2="694.88446"
     x1="695.51428" />
  <line
     style="stroke:#cc0000;stroke-width:0.74535519;stroke-opacity:0.8"
     id="line252"
     y2="337.11984"
     y1="265.4147"
     x2="609.49078"
     x1="695.51428" />
  <line
     style="stroke:#00cc00;stroke-width:0.74535519;stroke-opacity:0.8"
     id="line254"
     y2="284.63278"
     y1="210.77122"
     x2="699.03491"
     x1="558.78204" />
  <line
     style="stroke:#cc0000;stroke-width:0.74535519;stroke-opacity:0.8"
     id="line256"
     y2="245.89207"
     y1="210.77122"
     x2="694.88446"
     x1="558.78204" />
  <line
     style="stroke:#00cc00;stroke-width:0.74535519;stroke-opacity:0.8"
     id="line258"
     y2="284.63278"
     y1="255.30998"
     x2="699.03491"
     x1="607.15118" />
  <line
     style="stroke:#00cc00;stroke-width:0.74535519;stroke-opacity:0.8"
     id="line260"
     y2="245.89207"
     y1="255.30998"
     x2="694.88446"
     x1="607.15118" />
  <line
     style="stroke:#cc0000;stroke-width:0.74535519;stroke-opacity:0.8"
     id="line262"
     y2="245.89207"
     y1="284.63278"
     x2="694.88446"
     x1="699.03491" />
  <line
     style="stroke:#cc0000;stroke-width:0.74535519;stroke-opacity:0.8"
     id="line264"
     y2="337.11984"
     y1="284.63278"
     x2="609.49078"
     x1="699.03491" />
  <line
     style="stroke:#cc0000;stroke-width:0.74535519;stroke-opacity:0.8"
     id="line266"
     y2="337.11984"
     y1="245.89207"
     x2="609.49078"
     x1="694.88446" />
  <line
     style="stroke:#cc0000;stroke-width:0.74535519;stroke-opacity:0.8"
     id="line268"
     y2="337.11984"
     y1="332.586"
     x2="609.49078"
     x1="538.46643" />
  <line
     style="stroke:#00cc00;stroke-width:1.49071038;stroke-opacity:0.8"
     id="line270"
     y2="210.77122"
     y1="332.586"
     x2="558.78204"
     x1="538.46643" />
  <line
     style="stroke:#00cc00;stroke-width:0.74535519;stroke-opacity:0.8"
     id="line278"
     y2="402.22696"
     y1="332.586"
     x2="558.60541"
     x1="538.46643" />
  <line
     style="stroke:#cc0000;stroke-width:0.74535519;stroke-opacity:0.8"
     id="line280"
     y2="332.586"
     y1="494.58878"
     x2="538.46643"
     x1="630.45575" />
  <line
     style="stroke:#00cc00;stroke-width:0.74535519;stroke-opacity:0.8"
     id="line282"
     y2="402.22696"
     y1="472.93759"
     x2="558.60541"
     x1="484.05392" />
  <line
     style="stroke:#cc0000;stroke-width:0.74535519;stroke-opacity:0.8"
     id="line284"
     y2="459.58939"
     y1="539.96289"
     x2="444.23599"
     x1="489.5307" />
  <line
     style="stroke:#00cc00;stroke-width:0.74535519;stroke-opacity:0.8"
     id="line286"
     y2="402.22696"
     y1="539.96289"
     x2="558.60541"
     x1="489.5307" />
  <line
     style="stroke:#00cc00;stroke-width:0.74597013;stroke-opacity:0.8"
     id="line288"
     y2="402.22696"
     y1="459.58939"
     x2="558.60541"
     x1="444.23599" />
  <line
     style="stroke:#00cc00;stroke-width:0.74535519;stroke-opacity:0.8"
     id="line296"
     y2="402.22696"
     y1="255.30998"
     x2="558.60541"
     x1="607.15118" />
  <line
     style="stroke:#cc0000;stroke-width:0.74535519;stroke-opacity:0.8"
     id="line298"
     y2="332.586"
     y1="521.61664"
     x2="538.46643"
     x1="584.90967" />
  <line
     style="stroke:#cc0000;stroke-width:0.74535519;stroke-opacity:0.8"
     id="line300"
     y2="255.30998"
     y1="332.586"
     x2="607.15118"
     x1="538.46643" />
  <line
     style="stroke:#cc0000;stroke-width:0.74535519;stroke-opacity:0.8"
     id="line302"
     y2="294.16629"
     y1="460.99011"
     x2="503.93445"
     x1="408.25867" />
  <line
     style="stroke:#cc0000;stroke-width:0.74535519;stroke-opacity:0.8"
     id="line322"
     y2="459.58939"
     y1="294.16629"
     x2="444.23599"
     x1="503.93445" />
  <line
     style="stroke:#00cc00;stroke-width:0.74535519;stroke-opacity:0.8"
     id="line324"
     y2="515.17957"
     y1="459.58939"
     x2="430.70377"
     x1="444.23599" />
  <line
     style="stroke:#cc0000;stroke-width:0.74535519;stroke-opacity:0.8"
     id="line326"
     y2="472.93759"
     y1="515.17957"
     x2="484.05392"
     x1="430.70377" />
  <line
     style="stroke:#cc0000;stroke-width:0.74535519;stroke-opacity:0.8"
     id="line328"
     y2="407.80432"
     y1="515.17957"
     x2="493.49982"
     x1="430.70377" />
  <line
     style="stroke:#00cc00;stroke-width:0.74535519;stroke-opacity:0.8"
     id="line330"
     y2="472.93759"
     y1="407.80432"
     x2="484.05392"
     x1="493.49982" />
  <line
     style="stroke:#cc0000;stroke-width:0.74535519;stroke-opacity:0.8"
     id="line332"
     y2="210.77122"
     y1="301.58826"
     x2="558.78204"
     x1="656.02527" />
  <line
     style="stroke:#cc0000;stroke-width:0.74535519;stroke-opacity:0.8"
     id="line334"
     y2="332.586"
     y1="301.58826"
     x2="538.46643"
     x1="656.02527" />
  <line
     style="stroke:#cc0000;stroke-width:0.74535519;stroke-opacity:0.8"
     id="line336"
     y2="255.30998"
     y1="301.58826"
     x2="607.15118"
     x1="656.02527" />
  <line
     style="stroke:#cc0000;stroke-width:0.74535519;stroke-opacity:0.8"
     id="line344"
     y2="337.11984"
     y1="301.58826"
     x2="609.49078"
     x1="656.02527" />
  <line
     style="stroke:#cc0000;stroke-width:0.74535519;stroke-opacity:0.8"
     id="line346"
     y2="210.77122"
     y1="407.80432"
     x2="558.78204"
     x1="493.49982" />
  <line
     style="stroke:#00cc00;stroke-width:0.74535519;stroke-opacity:0.8"
     id="line348"
     y2="332.586"
     y1="407.80432"
     x2="538.46643"
     x1="493.49982" />
  <line
     style="stroke:#00cc00;stroke-width:0.74535519;stroke-opacity:0.8"
     id="line350"
     y2="385.73425"
     y1="407.80432"
     x2="460.81595"
     x1="493.49982" />
  <line
     style="stroke:#cc0000;stroke-width:0.74535519;stroke-opacity:0.8"
     id="line352"
     y2="385.73425"
     y1="210.77122"
     x2="460.81595"
     x1="558.78204" />
  <line
     style="stroke:#cc0000;stroke-width:0.74535519;stroke-opacity:0.8"
     id="line354"
     y2="385.73425"
     y1="332.586"
     x2="460.81595"
     x1="538.46643" />
  <line
     style="stroke:#cc0000;stroke-width:0.74535519;stroke-opacity:0.8"
     id="line356"
     y2="385.73425"
     y1="472.93759"
     x2="460.81595"
     x1="484.05392" />
  <line
     style="stroke:#cc0000;stroke-width:0.74535519;stroke-opacity:0.8"
     id="line358"
     y2="385.73425"
     y1="459.58939"
     x2="460.81595"
     x1="444.23599" />
  <line
     style="stroke:#00cc00;stroke-width:1.49071038;stroke-opacity:0.8"
     id="line366"
     y2="294.16629"
     y1="332.586"
     x2="503.93445"
     x1="538.46643" />
  <line
     style="stroke:#cc0000;stroke-width:0.74535519;stroke-opacity:0.8"
     id="line368"
     y2="255.30998"
     y1="366.5636"
     x2="607.15118"
     x1="571.97162" />
  <line
     style="stroke:#cc0000;stroke-width:0.74535519;stroke-opacity:0.8"
     id="line370"
     y2="402.02841"
     y1="366.5636"
     x2="657.07312"
     x1="571.97162" />
  <line
     style="stroke:#cc0000;stroke-width:0.74535519;stroke-opacity:0.8"
     id="line372"
     y2="402.22696"
     y1="366.5636"
     x2="558.60541"
     x1="571.97162" />
  <line
     style="stroke:#cc0000;stroke-width:0.74535519;stroke-opacity:0.8"
     id="line374"
     y2="402.02841"
     y1="255.30998"
     x2="657.07312"
     x1="607.15118" />
  <line
     style="stroke:#cc0000;stroke-width:0.74535519;stroke-opacity:0.8"
     id="line376"
     y2="402.22696"
     y1="402.02841"
     x2="558.60541"
     x1="657.07312" />
  <line
     style="stroke:#00cc00;stroke-width:0.81791306;stroke-opacity:0.8"
     id="line384"
     y2="366.5636"
     y1="407.80432"
     x2="571.97162"
     x1="493.49982" />
  <line
     style="stroke:#00cc00;stroke-width:0.74535519;stroke-opacity:0.8"
     id="line386"
     y2="500.18805"
     y1="407.80432"
     x2="558.63245"
     x1="493.49982" />
  <line
     style="stroke:#00cc00;stroke-width:0.74535519;stroke-opacity:0.8"
     id="line388"
     y2="366.5636"
     y1="332.586"
     x2="571.97162"
     x1="538.46643" />
  <line
     style="stroke:#cc0000;stroke-width:0.74535519;stroke-opacity:0.8"
     id="line390"
     y2="366.5636"
     y1="210.77122"
     x2="571.97162"
     x1="558.78204" />
  <line
     style="stroke:#00cc00;stroke-width:0.74535519;stroke-opacity:0.8"
     id="line392"
     y2="366.5636"
     y1="294.16629"
     x2="571.97162"
     x1="503.93445" />
  <line
     style="stroke:#cc0000;stroke-width:0.74535519;stroke-opacity:0.8"
     id="line394"
     y2="337.11984"
     y1="472.93759"
     x2="609.49078"
     x1="484.05392" />
  <line
     style="stroke:#00cc00;stroke-width:0.74535519;stroke-opacity:0.8"
     id="line396"
     y2="203.50505"
     y1="332.586"
     x2="493.71991"
     x1="538.46643" />
  <line
     style="stroke:#cc0000;stroke-width:0.74535519;stroke-opacity:0.8"
     id="line398"
     y2="203.50505"
     y1="210.77122"
     x2="493.71991"
     x1="558.78204" />
  <line
     style="stroke:#cc0000;stroke-width:0.74535519;stroke-opacity:0.8"
     id="line400"
     y2="203.50505"
     y1="294.16629"
     x2="493.71991"
     x1="503.93445" />
  <line
     style="stroke:#00cc00;stroke-width:0.74535519;stroke-opacity:0.8"
     id="line420"
     y2="73.938042"
     y1="31.73999"
     x2="503.68192"
     x1="524.87909" />
  <line
     style="stroke:#cc0000;stroke-width:0.74535519;stroke-opacity:0.8"
     id="line422"
     y2="68.657562"
     y1="31.73999"
     x2="529.6958"
     x1="524.87909" />
  <line
     style="stroke:#cc0000;stroke-width:0.74535519;stroke-opacity:0.8"
     id="line424"
     y2="210.77122"
     y1="31.73999"
     x2="558.78204"
     x1="524.87909" />
  <line
     style="stroke:#00cc00;stroke-width:0.74535519;stroke-opacity:0.8"
     id="line426"
     y2="68.657562"
     y1="73.938042"
     x2="529.6958"
     x1="503.68192" />
  <line
     style="stroke:#00cc00;stroke-width:0.74535519;stroke-opacity:0.8"
     id="line428"
     y2="210.77122"
     y1="73.938042"
     x2="558.78204"
     x1="503.68192" />
  <line
     style="stroke:#00cc00;stroke-width:0.74535519;stroke-opacity:0.8"
     id="line430"
     y2="210.77122"
     y1="68.657562"
     x2="558.78204"
     x1="529.6958" />
  <line
     style="stroke:#00cc00;stroke-width:0.74535519;stroke-opacity:0.8"
     id="line450"
     y2="210.77122"
     y1="253.4969"
     x2="558.78204"
     x1="428.72015" />
  <line
     style="stroke:#00cc00;stroke-width:0.74535519;stroke-opacity:0.8"
     id="line452"
     y2="332.586"
     y1="253.4969"
     x2="538.46643"
     x1="428.72015" />
  <line
     style="stroke:#cc0000;stroke-width:0.74535519;stroke-opacity:0.8"
     id="line454"
     y2="123.7767"
     y1="294.16629"
     x2="546.38318"
     x1="503.93445" />
  <line
     style="stroke:#cc0000;stroke-width:0.74535519;stroke-opacity:0.8"
     id="line456"
     y2="140.3853"
     y1="294.16629"
     x2="502.0108"
     x1="503.93445" />
  <line
     style="stroke:#cc0000;stroke-width:0.74535519;stroke-opacity:0.8"
     id="line458"
     y2="168.34102"
     y1="294.16629"
     x2="508.41983"
     x1="503.93445" />
  <line
     style="stroke:#00cc00;stroke-width:1.49071038;stroke-opacity:0.8"
     id="line460"
     y2="140.3853"
     y1="210.77122"
     x2="502.0108"
     x1="558.78204" />
  <line
     style="stroke:#00cc00;stroke-width:1.49071038;stroke-opacity:0.8"
     id="line462"
     y2="168.34102"
     y1="210.77122"
     x2="508.41983"
     x1="558.78204" />
  <line
     style="stroke:#00cc00;stroke-width:1.49071038;stroke-opacity:0.8"
     id="line464"
     y2="140.3853"
     y1="123.7767"
     x2="502.0108"
     x1="546.38318" />
  <line
     style="stroke:#00cc00;stroke-width:1.07844865;stroke-opacity:0.8"
     id="line466"
     y2="168.34102"
     y1="123.7767"
     x2="508.41983"
     x1="546.38318" />
  <line
     style="stroke:#cc0000;stroke-width:0.74535519;stroke-opacity:0.8"
     id="line468"
     y2="255.30998"
     y1="123.7767"
     x2="607.15118"
     x1="546.38318" />
  <line
     style="stroke:#00cc00;stroke-width:0.74535519;stroke-opacity:0.8"
     id="line470"
     y2="203.50505"
     y1="123.7767"
     x2="493.71991"
     x1="546.38318" />
  <line
     style="stroke:#00cc00;stroke-width:0.74535519;stroke-opacity:0.8"
     id="line472"
     y2="168.34102"
     y1="140.3853"
     x2="508.41983"
     x1="502.0108" />
  <line
     style="stroke:#00cc00;stroke-width:0.74535519;stroke-opacity:0.8"
     id="line474"
     y2="255.30998"
     y1="140.3853"
     x2="607.15118"
     x1="502.0108" />
  <line
     style="stroke:#00cc00;stroke-width:0.74535519;stroke-opacity:0.8"
     id="line476"
     y2="203.50505"
     y1="140.3853"
     x2="493.71991"
     x1="502.0108" />
  <line
     style="stroke:#00cc00;stroke-width:0.74535519;stroke-opacity:0.8"
     id="line478"
     y2="255.30998"
     y1="168.34102"
     x2="607.15118"
     x1="508.41983" />
  <line
     style="stroke:#00cc00;stroke-width:0.74535519;stroke-opacity:0.8"
     id="line480"
     y2="203.50505"
     y1="168.34102"
     x2="493.71991"
     x1="508.41983" />
  <line
     style="stroke:#cc0000;stroke-width:0.74535519;stroke-opacity:0.8"
     id="line482"
     y2="203.50505"
     y1="255.30998"
     x2="493.71991"
     x1="607.15118" />
  <line
     style="stroke:#cc0000;stroke-width:0.74535519;stroke-opacity:0.8"
     id="line484"
     y2="140.3853"
     y1="68.657562"
     x2="502.0108"
     x1="529.6958" />
  <line
     style="stroke:#cc0000;stroke-width:0.74535519;stroke-opacity:0.8"
     id="line486"
     y2="140.3853"
     y1="73.938042"
     x2="502.0108"
     x1="503.68192" />
  <line
     style="stroke:#cc0000;stroke-width:0.74535519;stroke-opacity:0.8"
     id="line488"
     y2="68.657562"
     y1="123.7767"
     x2="529.6958"
     x1="546.38318" />
  <line
     style="stroke:#00cc00;stroke-width:0.74535519;stroke-opacity:0.8"
     id="line490"
     y2="73.938042"
     y1="123.7767"
     x2="503.68192"
     x1="546.38318" />
  <line
     style="stroke:#cc0000;stroke-width:0.74535519;stroke-opacity:0.8"
     id="line492"
     y2="459.58939"
     y1="407.80432"
     x2="444.23599"
     x1="493.49982" />
  <line
     style="stroke:#cc0000;stroke-width:0.74535519;stroke-opacity:0.8"
     id="line500"
     y2="248.04544"
     y1="294.16629"
     x2="483.09476"
     x1="503.93445" />
  <line
     style="stroke:#00cc00;stroke-width:0.74535519;stroke-opacity:0.8"
     id="line502"
     y2="248.04544"
     y1="332.586"
     x2="483.09476"
     x1="538.46643" />
  <line
     style="stroke:#cc0000;stroke-width:0.74535519;stroke-opacity:0.8"
     id="line504"
     y2="248.04544"
     y1="210.77122"
     x2="483.09476"
     x1="558.78204" />
  <line
     style="stroke:#00cc00;stroke-width:0.74535519;stroke-opacity:0.8"
     id="line506"
     y2="248.04544"
     y1="255.30998"
     x2="483.09476"
     x1="607.15118" />
  <g
     inkscape:groupmode="layer"
     id="layer2"
     inkscape:label="Layer 2"
     style="display:inline" />
  <g
     inkscape:groupmode="layer"
     id="layer1"
     inkscape:label="Layer 1"
     style="display:inline">
    <g
       style=""
       id="g140"
       transform="matrix(0.74535519,0,0,0.74535519,640.87475,190.79433)"
       class="node">
      <circle
         style="fill:#668877"
         cy="0"
         cx="0"
         id="circle136"
         r="6.377049" />
      <text
         id="text138">AUNT BERU</text>
    </g>
    <circle
       r="3.9100599"
       id="circle408"
       cx="503.68192"
       cy="73.938034"
       style="fill:#668877;stroke-width:0.74535519" />
    <text
       id="text410"
       x="438.98807"
       y="70.766769"
       style="font-size:8.9442625px;stroke-width:0.74535519">GOLD LEADER</text>
    <g
       style=""
       id="g418"
       transform="matrix(0.74535519,0,0,0.74535519,529.69576,68.657553)"
       class="node">
      <circle
         style="fill:#668877"
         cy="0"
         cx="0"
         id="circle414"
         r="5.3639345" />
      <text
         id="text416">WEDGE</text>
    </g>
    <g
       style=""
       id="g32"
       transform="matrix(0.74535519,0,0,0.74535519,579.37883,40.942894)"
       class="node">
      <circle
         style="fill:#668877"
         cy="0"
         cx="0"
         id="circle28"
         r="5.3245902" />
      <text
         id="text30">FIXER</text>
    </g>
    <g
       style=""
       id="g38"
       transform="matrix(0.74535519,0,0,0.74535519,616.67197,53.928465)"
       class="node">
      <circle
         style="fill:#668877"
         cy="0"
         cx="0"
         id="circle34"
         r="5.3245902" />
      <text
         id="text36">CAMIE</text>
    </g>
    <circle
       r="3.8953974"
       id="circle70"
       cx="593.73938"
       cy="59.325592"
       style="fill:#668877;stroke-width:0.74535519" />
    <text
       id="text72"
       x="570.86664"
       y="67.17408"
       style="font-size:8.9442625px;stroke-width:0.74535519">DEAK</text>
    <g
       style=""
       id="g406"
       transform="matrix(0.74535519,0,0,0.74535519,524.8791,31.739982)"
       class="node">
      <circle
         style="fill:#668877"
         cy="0"
         cx="0"
         id="circle402"
         r="5.1967211" />
      <text
         id="text404">DODONNA</text>
    </g>
    <g
       style=""
       id="g50"
       transform="matrix(0.74535519,0,0,0.74535519,546.38316,123.77669)"
       class="node">
      <circle
         style="fill:#668877"
         cy="0"
         cx="0"
         id="circle46"
         r="6.5442624" />
      <text
         id="text48">BIGGS</text>
    </g>
    <g
       style=""
       id="g442"
       transform="matrix(0.74535519,0,0,0.74535519,502.01078,140.38529)"
       class="node">
      <circle
         style="fill:#668877"
         cy="0"
         cx="0"
         id="circle438"
         r="5.6590166" />
      <text
         id="text440">RED LEADER</text>
    </g>
    <g
       style=""
       id="g448"
       transform="matrix(0.74535519,0,0,0.74535519,508.41984,168.34102)"
       class="node">
      <circle
         style="fill:#668877"
         cy="0"
         cx="0"
         id="circle444"
         r="5.3737707" />
      <text
         id="text446">CHIEF</text>
    </g>
    <g
       style=""
       id="g382"
       transform="matrix(0.74535519,0,0,0.74535519,493.71992,203.50504)"
       class="node">
      <circle
         style="fill:#668877"
         cy="0"
         cx="0"
         id="circle378"
         r="5.4721313" />
      <text
         id="text380">BEN'S VOICE</text>
    </g>
    <g
       style=""
       id="g44"
       transform="matrix(0.74535519,0,0,0.74535519,558.78207,210.77123)"
       class="node">
      <circle
         style="fill:#668877"
         cy="0"
         cx="0"
         id="circle40"
         r="16.577049" />
      <text
         id="text42">LUKE</text>
    </g>
    <g
       style=""
       id="g122"
       transform="matrix(0.74535519,0,0,0.74535519,675.65856,137.60107)"
       class="node">
      <circle
         style="fill:#668877"
         cy="0"
         cx="0"
         id="circle118"
         r="5.4327869" />
      <text
         id="text120">BERU</text>
    </g>
    <g
       style=""
       id="g128"
       transform="matrix(0.74535519,0,0,0.74535519,691.91624,166.97483)"
       class="node">
      <circle
         style="fill:#668877"
         cy="0"
         cx="0"
         id="circle124"
         r="6.0524592" />
      <text
         id="text126">OWEN</text>
    </g>
    <g
       style=""
       id="g134"
       transform="matrix(0.74535519,0,0,0.74535519,607.15117,255.30999)"
       class="node">
      <circle
         style="fill:#668877"
         cy="0"
         cx="0"
         id="circle130"
         r="10.655738" />
      <text
         id="text132">THREEPIO</text>
    </g>
    <g
       style=""
       id="g222"
       transform="matrix(0.74535519,0,0,0.74535519,695.5143,265.4147)"
       class="node">
      <circle
         style="fill:#668877"
         cy="0"
         cx="0"
         id="circle218"
         r="5.2360654" />
      <text
         id="text220">BARTENDER</text>
    </g>
    <g
       style=""
       id="g228"
       transform="matrix(0.74535519,0,0,0.74535519,699.03493,284.63278)"
       class="node">
      <circle
         style="fill:#668877"
         cy="0"
         cx="0"
         id="circle224"
         r="5.2360654" />
      <text
         id="text226">CREATURE</text>
    </g>
    <g
       style=""
       id="g234"
       transform="matrix(0.74535519,0,0,0.74535519,694.88448,245.89207)"
       class="node">
      <circle
         style="fill:#668877"
         cy="0"
         cx="0"
         id="circle230"
         r="5.2360654" />
      <text
         id="text232">HUMAN</text>
    </g>
    <g
       style=""
       id="g146"
       transform="matrix(0.74535519,0,0,0.74535519,609.49076,337.11981)"
       class="node">
      <circle
         style="fill:#668877"
         cy="0"
         cx="0"
         id="circle142"
         r="9.6131144" />
      <text
         id="text144">BEN</text>
    </g>
    <g
       style=""
       id="g320"
       transform="matrix(0.74535519,0,0,0.74535519,656.02527,301.58826)"
       class="node">
      <circle
         style="fill:#668877"
         cy="0"
         cx="0"
         id="circle316"
         r="5.9442625" />
      <text
         id="text318">GANTRY OFFICER</text>
    </g>
    <g
       style=""
       id="g498"
       transform="matrix(0.74535519,0,0,0.74535519,483.09477,248.04543)"
       class="node">
      <circle
         style="fill:#668877"
         cy="0"
         cx="0"
         id="circle494"
         r="5.1868854" />
      <text
         id="text496">TECHNICIAN</text>
    </g>
    <g
       style=""
       id="g436"
       transform="matrix(0.74535519,0,0,0.74535519,428.72015,253.4969)"
       class="node">
      <circle
         style="fill:#668877"
         cy="0"
         cx="0"
         id="circle432"
         r="5.2459016" />
      <text
         id="text434">MAN'S VOICE</text>
    </g>
    <g
       style=""
       id="g80"
       transform="matrix(0.74535519,0,0,0.74535519,503.93445,294.16628)"
       class="node">
      <circle
         style="fill:#668877"
         cy="0"
         cx="0"
         id="circle76"
         r="9.8491802" />
      <text
         id="text78">LEIA</text>
    </g>
    <g
       style=""
       id="g240"
       transform="matrix(0.74535519,0,0,0.74535519,538.46643,332.58601)"
       class="node">
      <circle
         style="fill:#668877"
         cy="0"
         cx="0"
         id="circle236"
         r="10.911475" />
      <text
         id="text238">HAN</text>
    </g>
    <g
       style=""
       id="g110"
       transform="matrix(0.74535519,0,0,0.74535519,571.97158,366.5636)"
       class="node">
      <circle
         style="fill:#668877"
         cy="0"
         cx="0"
         id="circle106"
         r="5.4032788" />
      <text
         id="text108">FIRST TROOPER</text>
    </g>
    <g
       style=""
       id="g212"
       transform="matrix(0.74535519,0,0,0.74535519,558.60541,402.22696)"
       class="node">
      <circle
         style="fill:#668877"
         cy="0"
         cx="0"
         id="circle208"
         r="5.8754096" />
      <text
         id="text210">TROOPER</text>
    </g>
    <g
       style=""
       id="g364"
       transform="matrix(0.74535519,0,0,0.74535519,657.07311,402.02842)"
       class="node">
      <circle
         style="fill:#668877"
         cy="0"
         cx="0"
         id="circle360"
         r="5.1278687" />
      <text
         id="text362">FIRST OFFICER</text>
    </g>
    <g
       style=""
       id="g12"
       transform="matrix(0.74535519,0,0,0.74535519,484.05391,472.93758)"
       class="node">
      <circle
         style="fill:#668877"
         cy="0"
         cx="0"
         id="circle8"
         r="6.4459019" />
      <text
         id="text10">VADER</text>
    </g>
    <g
       style=""
       id="g194"
       transform="matrix(0.74535519,0,0,0.74535519,444.23597,459.58938)"
       class="node">
      <circle
         style="fill:#668877"
         cy="0"
         cx="0"
         id="circle190"
         r="6.1901641" />
      <text
         id="text192">TARKIN</text>
    </g>
    <g
       style=""
       id="g314"
       transform="matrix(0.74535519,0,0,0.74535519,493.49979,407.80431)"
       class="node">
      <circle
         style="fill:#668877"
         cy="0"
         cx="0"
         id="circle310"
         r="5.6196723" />
      <text
         id="text312">OFFICER</text>
    </g>
    <g
       style=""
       id="g342"
       transform="matrix(0.74535519,0,0,0.74535519,460.81594,385.73427)"
       class="node">
      <circle
         style="fill:#668877"
         cy="0"
         cx="0"
         id="circle338"
         r="5.5114756" />
      <text
         id="text340">INTERCOM VOICE</text>
    </g>
    <g
       style=""
       id="g6"
       transform="matrix(0.74535519,0,0,0.74535519,489.5307,539.96288)"
       class="node">
      <circle
         style="fill:#668877"
         cy="0"
         cx="0"
         id="circle2"
         r="5.2065573" />
      <text
         id="text4">IMPERIAL OFFICER</text>
    </g>
    <g
       style=""
       id="g86"
       transform="matrix(0.74535519,0,0,0.74535519,513.01734,465.76931)"
       class="node">
      <circle
         style="fill:#668877"
         cy="0"
         cx="0"
         id="circle82"
         r="5.2754097" />
      <text
         id="text84">COMMANDER</text>
    </g>
    <g
       style=""
       id="g92"
       transform="matrix(0.74535519,0,0,0.74535519,535.21968,473.98332)"
       class="node">
      <circle
         style="fill:#668877"
         cy="0"
         cx="0"
         id="circle88"
         r="5.2754097" />
      <text
         id="text90">SECOND OFFICER</text>
    </g>
    <g
       style=""
       id="g116"
       transform="matrix(0.74535519,0,0,0.74535519,558.63245,500.18803)"
       class="node">
      <circle
         style="fill:#668877"
         cy="0"
         cx="0"
         id="circle112"
         r="5.0983605" />
      <text
         id="text114">SECOND TROOPER</text>
    </g>
    <g
       style=""
       id="g276"
       transform="matrix(0.74535519,0,0,0.74535519,630.45574,494.58878)"
       class="node">
      <circle
         style="fill:#668877"
         cy="0"
         cx="0"
         id="circle272"
         r="5.2262297" />
      <text
         id="text274">GREEDO</text>
    </g>
    <g
       style=""
       id="g294"
       transform="matrix(0.74535519,0,0,0.74535519,584.9097,521.61664)"
       class="node">
      <circle
         style="fill:#668877"
         cy="0"
         cx="0"
         id="circle290"
         r="5.2950821" />
      <text
         id="text292">JABBA</text>
    </g>
    <g
       style=""
       id="g182"
       transform="matrix(0.74535519,0,0,0.74535519,421.51919,546.67705)"
       class="node">
      <circle
         style="fill:#668877"
         cy="0"
         cx="0"
         id="circle178"
         r="5.2950821" />
      <text
         id="text180">TAGGE</text>
    </g>
    <g
       style=""
       id="g188"
       transform="matrix(0.74535519,0,0,0.74535519,408.25866,460.99011)"
       class="node">
      <circle
         style="fill:#668877"
         cy="0"
         cx="0"
         id="circle184"
         r="5.6393442" />
      <text
         id="text186">MOTTI</text>
    </g>
    <g
       style=""
       id="g308"
       transform="matrix(0.74535519,0,0,0.74535519,430.70378,515.17954)"
       class="node">
      <circle
         style="fill:#668877"
         cy="0"
         cx="0"
         id="circle304"
         r="5.265574" />
      <text
         id="text306">VOICE</text>
    </g>
  </g>
</svg>
